mc16_13TeV.361107.PowhegPythia8EvtGen_AZNLOCTEQ6L1_Zmumu.deriv.DAOD_HIGG4D2.e3601_s3126_r10201_p3749
mc16_13TeV.361108.PowhegPythia8EvtGen_AZNLOCTEQ6L1_Ztautau.deriv.DAOD_HIGG4D2.e3601_s3126_r10201_p3749
mc16_13TeV.361106.PowhegPythia8EvtGen_AZNLOCTEQ6L1_Zee.deriv.DAOD_HIGG4D2.e3601_s3126_r10201_p3749
mc16_13TeV.410470.PhPy8EG_A14_ttbar_hdamp258p75_nonallhad.deriv.DAOD_HIGG4D2.e6337_s3126_r10201_p3749
mc16_13TeV.301000.PowhegPythia8EvtGen_AZNLOCTEQ6L1_DYee_120M180.deriv.DAOD_HIGG4D2.e3649_s3126_r10201_p3749
mc16_13TeV.301001.PowhegPythia8EvtGen_AZNLOCTEQ6L1_DYee_180M250.deriv.DAOD_HIGG4D2.e3649_s3126_r10201_p3749
mc16_13TeV.301002.PowhegPythia8EvtGen_AZNLOCTEQ6L1_DYee_250M400.deriv.DAOD_HIGG4D2.e3649_s3126_r10201_p3749
mc16_13TeV.301003.PowhegPythia8EvtGen_AZNLOCTEQ6L1_DYee_400M600.deriv.DAOD_HIGG4D2.e3649_s3126_r10201_p3749
mc16_13TeV.301004.PowhegPythia8EvtGen_AZNLOCTEQ6L1_DYee_600M800.deriv.DAOD_HIGG4D2.e3649_s3126_r10201_p3749
mc16_13TeV.301005.PowhegPythia8EvtGen_AZNLOCTEQ6L1_DYee_800M1000.deriv.DAOD_HIGG4D2.e3649_s3126_r10201_p3749
mc16_13TeV.301006.PowhegPythia8EvtGen_AZNLOCTEQ6L1_DYee_1000M1250.deriv.DAOD_HIGG4D2.e3649_s3126_r10201_p3749
mc16_13TeV.301007.PowhegPythia8EvtGen_AZNLOCTEQ6L1_DYee_1250M1500.deriv.DAOD_HIGG4D2.e3649_s3126_r10201_p3749
mc16_13TeV.301008.PowhegPythia8EvtGen_AZNLOCTEQ6L1_DYee_1500M1750.deriv.DAOD_HIGG4D2.e3649_s3126_r10201_p3749
mc16_13TeV.301009.PowhegPythia8EvtGen_AZNLOCTEQ6L1_DYee_1750M2000.deriv.DAOD_HIGG4D2.e3649_s3126_r10201_p3749
mc16_13TeV.301010.PowhegPythia8EvtGen_AZNLOCTEQ6L1_DYee_2000M2250.deriv.DAOD_HIGG4D2.e3649_s3126_r10201_p3749
mc16_13TeV.301011.PowhegPythia8EvtGen_AZNLOCTEQ6L1_DYee_2250M2500.deriv.DAOD_HIGG4D2.e3649_s3126_r10201_p3749
mc16_13TeV.301012.PowhegPythia8EvtGen_AZNLOCTEQ6L1_DYee_2500M2750.deriv.DAOD_HIGG4D2.e3649_s3126_r10201_p3749
mc16_13TeV.301013.PowhegPythia8EvtGen_AZNLOCTEQ6L1_DYee_2750M3000.deriv.DAOD_HIGG4D2.e3649_s3126_r10201_p3749
mc16_13TeV.301014.PowhegPythia8EvtGen_AZNLOCTEQ6L1_DYee_3000M3500.deriv.DAOD_HIGG4D2.e3649_s3126_r10201_p3749
mc16_13TeV.301015.PowhegPythia8EvtGen_AZNLOCTEQ6L1_DYee_3500M4000.deriv.DAOD_HIGG4D2.e3649_s3126_r10201_p3749
mc16_13TeV.301016.PowhegPythia8EvtGen_AZNLOCTEQ6L1_DYee_4000M4500.deriv.DAOD_HIGG4D2.e3649_s3126_r10201_p3749
mc16_13TeV.301017.PowhegPythia8EvtGen_AZNLOCTEQ6L1_DYee_4500M5000.deriv.DAOD_HIGG4D2.e3649_s3126_r10201_p3749
mc16_13TeV.301018.PowhegPythia8EvtGen_AZNLOCTEQ6L1_DYee_5000M.deriv.DAOD_HIGG4D2.e3649_s3126_r10201_p3749
mc16_13TeV.301020.PowhegPythia8EvtGen_AZNLOCTEQ6L1_DYmumu_120M180.deriv.DAOD_HIGG4D2.e3649_s3126_r10201_p3749
mc16_13TeV.301021.PowhegPythia8EvtGen_AZNLOCTEQ6L1_DYmumu_180M250.deriv.DAOD_HIGG4D2.e3649_s3126_r10201_p3749
mc16_13TeV.301022.PowhegPythia8EvtGen_AZNLOCTEQ6L1_DYmumu_250M400.deriv.DAOD_HIGG4D2.e3649_s3126_r10201_p3749
mc16_13TeV.301023.PowhegPythia8EvtGen_AZNLOCTEQ6L1_DYmumu_400M600.deriv.DAOD_HIGG4D2.e3649_s3126_r10201_p3749
mc16_13TeV.301024.PowhegPythia8EvtGen_AZNLOCTEQ6L1_DYmumu_600M800.deriv.DAOD_HIGG4D2.e3649_s3126_r10201_p3749
mc16_13TeV.301025.PowhegPythia8EvtGen_AZNLOCTEQ6L1_DYmumu_800M1000.deriv.DAOD_HIGG4D2.e3649_s3126_r10201_p3749
mc16_13TeV.301026.PowhegPythia8EvtGen_AZNLOCTEQ6L1_DYmumu_1000M1250.deriv.DAOD_HIGG4D2.e3649_s3126_r10201_p3749
mc16_13TeV.301027.PowhegPythia8EvtGen_AZNLOCTEQ6L1_DYmumu_1250M1500.deriv.DAOD_HIGG4D2.e3649_s3126_r10201_p3749
mc16_13TeV.301028.PowhegPythia8EvtGen_AZNLOCTEQ6L1_DYmumu_1500M1750.deriv.DAOD_HIGG4D2.e3649_s3126_r10201_p3749
mc16_13TeV.301029.PowhegPythia8EvtGen_AZNLOCTEQ6L1_DYmumu_1750M2000.deriv.DAOD_HIGG4D2.e3649_s3126_r10201_p3749
mc16_13TeV.301030.PowhegPythia8EvtGen_AZNLOCTEQ6L1_DYmumu_2000M2250.deriv.DAOD_HIGG4D2.e3649_s3126_r10201_p3749
mc16_13TeV.301031.PowhegPythia8EvtGen_AZNLOCTEQ6L1_DYmumu_2250M2500.deriv.DAOD_HIGG4D2.e3649_s3126_r10201_p3749
mc16_13TeV.301032.PowhegPythia8EvtGen_AZNLOCTEQ6L1_DYmumu_2500M2750.deriv.DAOD_HIGG4D2.e3649_s3126_r10201_p3749
mc16_13TeV.301033.PowhegPythia8EvtGen_AZNLOCTEQ6L1_DYmumu_2750M3000.deriv.DAOD_HIGG4D2.e3649_s3126_r10201_p3749
mc16_13TeV.301034.PowhegPythia8EvtGen_AZNLOCTEQ6L1_DYmumu_3000M3500.deriv.DAOD_HIGG4D2.e3649_s3126_r10201_p3749
mc16_13TeV.301035.PowhegPythia8EvtGen_AZNLOCTEQ6L1_DYmumu_3500M4000.deriv.DAOD_HIGG4D2.e3649_s3126_r10201_p3749
mc16_13TeV.301036.PowhegPythia8EvtGen_AZNLOCTEQ6L1_DYmumu_4000M4500.deriv.DAOD_HIGG4D2.e3649_s3126_r10201_p3749
mc16_13TeV.301037.PowhegPythia8EvtGen_AZNLOCTEQ6L1_DYmumu_4500M5000.deriv.DAOD_HIGG4D2.e3649_s3126_r10201_p3749
mc16_13TeV.301038.PowhegPythia8EvtGen_AZNLOCTEQ6L1_DYmumu_5000M.deriv.DAOD_HIGG4D2.e3649_s3126_r10201_p3749
mc16_13TeV.301040.PowhegPythia8EvtGen_AZNLOCTEQ6L1_DYtautau_120M180.deriv.DAOD_HIGG4D2.e3649_s3126_r10201_p3749
mc16_13TeV.301041.PowhegPythia8EvtGen_AZNLOCTEQ6L1_DYtautau_180M250.deriv.DAOD_HIGG4D2.e3649_s3126_r10201_p3749
mc16_13TeV.301042.PowhegPythia8EvtGen_AZNLOCTEQ6L1_DYtautau_250M400.deriv.DAOD_HIGG4D2.e3649_s3126_r10201_p3749
mc16_13TeV.301043.PowhegPythia8EvtGen_AZNLOCTEQ6L1_DYtautau_400M600.deriv.DAOD_HIGG4D2.e3649_s3126_r10201_p3749
mc16_13TeV.301044.PowhegPythia8EvtGen_AZNLOCTEQ6L1_DYtautau_600M800.deriv.DAOD_HIGG4D2.e3649_s3126_r10201_p3749
mc16_13TeV.301045.PowhegPythia8EvtGen_AZNLOCTEQ6L1_DYtautau_800M1000.deriv.DAOD_HIGG4D2.e3649_s3126_r10201_p3749
mc16_13TeV.301046.PowhegPythia8EvtGen_AZNLOCTEQ6L1_DYtautau_1000M1250.deriv.DAOD_HIGG4D2.e3649_s3126_r10201_p3749
mc16_13TeV.301047.PowhegPythia8EvtGen_AZNLOCTEQ6L1_DYtautau_1250M1500.deriv.DAOD_HIGG4D2.e3649_s3126_r10201_p3749
mc16_13TeV.301048.PowhegPythia8EvtGen_AZNLOCTEQ6L1_DYtautau_1500M1750.deriv.DAOD_HIGG4D2.e3649_s3126_r10201_p3749
mc16_13TeV.301049.PowhegPythia8EvtGen_AZNLOCTEQ6L1_DYtautau_1750M2000.deriv.DAOD_HIGG4D2.e3649_s3126_r10201_p3749
mc16_13TeV.301050.PowhegPythia8EvtGen_AZNLOCTEQ6L1_DYtautau_2000M2250.deriv.DAOD_HIGG4D2.e3649_s3126_r10201_p3749
mc16_13TeV.301051.PowhegPythia8EvtGen_AZNLOCTEQ6L1_DYtautau_2250M2500.deriv.DAOD_HIGG4D2.e3649_s3126_r10201_p3749
mc16_13TeV.301052.PowhegPythia8EvtGen_AZNLOCTEQ6L1_DYtautau_2500M2750.deriv.DAOD_HIGG4D2.e3649_s3126_r10201_p3749
mc16_13TeV.301053.PowhegPythia8EvtGen_AZNLOCTEQ6L1_DYtautau_2750M3000.deriv.DAOD_HIGG4D2.e3649_s3126_r10201_p3749
mc16_13TeV.301054.PowhegPythia8EvtGen_AZNLOCTEQ6L1_DYtautau_3000M3500.deriv.DAOD_HIGG4D2.e3649_s3126_r10201_p3749
mc16_13TeV.301055.PowhegPythia8EvtGen_AZNLOCTEQ6L1_DYtautau_3500M4000.deriv.DAOD_HIGG4D2.e3649_s3126_r10201_p3749
mc16_13TeV.301056.PowhegPythia8EvtGen_AZNLOCTEQ6L1_DYtautau_4000M4500.deriv.DAOD_HIGG4D2.e3649_s3126_r10201_p3749
mc16_13TeV.301057.PowhegPythia8EvtGen_AZNLOCTEQ6L1_DYtautau_4500M5000.deriv.DAOD_HIGG4D2.e3649_s3126_r10201_p3749
mc16_13TeV.301058.PowhegPythia8EvtGen_AZNLOCTEQ6L1_DYtautau_5000M.deriv.DAOD_HIGG4D2.e3649_s3126_r10201_p3749
mc16_13TeV.364156.Sherpa_221_NNPDF30NNLO_Wmunu_MAXHTPTV0_70_CVetoBVeto.deriv.DAOD_HIGG4D2.e5340_s3126_r10201_p3749
mc16_13TeV.364157.Sherpa_221_NNPDF30NNLO_Wmunu_MAXHTPTV0_70_CFilterBVeto.deriv.DAOD_HIGG4D2.e5340_s3126_r10201_p3749
mc16_13TeV.364158.Sherpa_221_NNPDF30NNLO_Wmunu_MAXHTPTV0_70_BFilter.deriv.DAOD_HIGG4D2.e5340_s3126_r10201_p3749
mc16_13TeV.364159.Sherpa_221_NNPDF30NNLO_Wmunu_MAXHTPTV70_140_CVetoBVeto.deriv.DAOD_HIGG4D2.e5340_s3126_r10201_p3749
mc16_13TeV.364160.Sherpa_221_NNPDF30NNLO_Wmunu_MAXHTPTV70_140_CFilterBVeto.deriv.DAOD_HIGG4D2.e5340_s3126_r10201_p3749
mc16_13TeV.364161.Sherpa_221_NNPDF30NNLO_Wmunu_MAXHTPTV70_140_BFilter.deriv.DAOD_HIGG4D2.e5340_s3126_r10201_p3749
mc16_13TeV.364162.Sherpa_221_NNPDF30NNLO_Wmunu_MAXHTPTV140_280_CVetoBVeto.deriv.DAOD_HIGG4D2.e5340_s3126_r10201_p3749
mc16_13TeV.364163.Sherpa_221_NNPDF30NNLO_Wmunu_MAXHTPTV140_280_CFilterBVeto.deriv.DAOD_HIGG4D2.e5340_s3126_r10201_p3749
mc16_13TeV.364164.Sherpa_221_NNPDF30NNLO_Wmunu_MAXHTPTV140_280_BFilter.deriv.DAOD_HIGG4D2.e5340_s3126_r10201_p3749
mc16_13TeV.364165.Sherpa_221_NNPDF30NNLO_Wmunu_MAXHTPTV280_500_CVetoBVeto.deriv.DAOD_HIGG4D2.e5340_s3126_r10201_p3749
mc16_13TeV.364166.Sherpa_221_NNPDF30NNLO_Wmunu_MAXHTPTV280_500_CFilterBVeto.deriv.DAOD_HIGG4D2.e5340_s3126_r10201_p3749
mc16_13TeV.364167.Sherpa_221_NNPDF30NNLO_Wmunu_MAXHTPTV280_500_BFilter.deriv.DAOD_HIGG4D2.e5340_s3126_r10201_p3749
mc16_13TeV.364168.Sherpa_221_NNPDF30NNLO_Wmunu_MAXHTPTV500_1000.deriv.DAOD_HIGG4D2.e5340_s3126_r10201_p3749
mc16_13TeV.364169.Sherpa_221_NNPDF30NNLO_Wmunu_MAXHTPTV1000_E_CMS.deriv.DAOD_HIGG4D2.e5340_s3126_r10201_p3749
mc16_13TeV.364170.Sherpa_221_NNPDF30NNLO_Wenu_MAXHTPTV0_70_CVetoBVeto.deriv.DAOD_HIGG4D2.e5340_s3126_r10201_p3749
mc16_13TeV.364171.Sherpa_221_NNPDF30NNLO_Wenu_MAXHTPTV0_70_CFilterBVeto.deriv.DAOD_HIGG4D2.e5340_s3126_r10201_p3749
mc16_13TeV.364172.Sherpa_221_NNPDF30NNLO_Wenu_MAXHTPTV0_70_BFilter.deriv.DAOD_HIGG4D2.e5340_s3126_r10201_p3749
mc16_13TeV.364173.Sherpa_221_NNPDF30NNLO_Wenu_MAXHTPTV70_140_CVetoBVeto.deriv.DAOD_HIGG4D2.e5340_s3126_r10201_p3749
mc16_13TeV.364174.Sherpa_221_NNPDF30NNLO_Wenu_MAXHTPTV70_140_CFilterBVeto.deriv.DAOD_HIGG4D2.e5340_s3126_r10201_p3749
mc16_13TeV.364175.Sherpa_221_NNPDF30NNLO_Wenu_MAXHTPTV70_140_BFilter.deriv.DAOD_HIGG4D2.e5340_s3126_r10201_p3749
mc16_13TeV.364176.Sherpa_221_NNPDF30NNLO_Wenu_MAXHTPTV140_280_CVetoBVeto.deriv.DAOD_HIGG4D2.e5340_s3126_r10201_p3749
mc16_13TeV.364177.Sherpa_221_NNPDF30NNLO_Wenu_MAXHTPTV140_280_CFilterBVeto.deriv.DAOD_HIGG4D2.e5340_s3126_r10201_p3749
mc16_13TeV.364178.Sherpa_221_NNPDF30NNLO_Wenu_MAXHTPTV140_280_BFilter.deriv.DAOD_HIGG4D2.e5340_s3126_r10201_p3749
mc16_13TeV.364179.Sherpa_221_NNPDF30NNLO_Wenu_MAXHTPTV280_500_CVetoBVeto.deriv.DAOD_HIGG4D2.e5340_s3126_r10201_p3749
mc16_13TeV.364180.Sherpa_221_NNPDF30NNLO_Wenu_MAXHTPTV280_500_CFilterBVeto.deriv.DAOD_HIGG4D2.e5340_s3126_r10201_p3749
mc16_13TeV.364181.Sherpa_221_NNPDF30NNLO_Wenu_MAXHTPTV280_500_BFilter.deriv.DAOD_HIGG4D2.e5340_s3126_r10201_p3749
mc16_13TeV.364182.Sherpa_221_NNPDF30NNLO_Wenu_MAXHTPTV500_1000.deriv.DAOD_HIGG4D2.e5340_s3126_r10201_p3749
mc16_13TeV.364183.Sherpa_221_NNPDF30NNLO_Wenu_MAXHTPTV1000_E_CMS.deriv.DAOD_HIGG4D2.e5340_s3126_r10201_p3749
mc16_13TeV.364184.Sherpa_221_NNPDF30NNLO_Wtaunu_MAXHTPTV0_70_CVetoBVeto.deriv.DAOD_HIGG4D2.e5340_s3126_r10201_p3749
mc16_13TeV.364185.Sherpa_221_NNPDF30NNLO_Wtaunu_MAXHTPTV0_70_CFilterBVeto.deriv.DAOD_HIGG4D2.e5340_s3126_r10201_p3749
mc16_13TeV.364186.Sherpa_221_NNPDF30NNLO_Wtaunu_MAXHTPTV0_70_BFilter.deriv.DAOD_HIGG4D2.e5340_s3126_r10201_p3749
mc16_13TeV.364187.Sherpa_221_NNPDF30NNLO_Wtaunu_MAXHTPTV70_140_CVetoBVeto.deriv.DAOD_HIGG4D2.e5340_s3126_r10201_p3749
mc16_13TeV.364188.Sherpa_221_NNPDF30NNLO_Wtaunu_MAXHTPTV70_140_CFilterBVeto.deriv.DAOD_HIGG4D2.e5340_s3126_r10201_p3749
mc16_13TeV.364189.Sherpa_221_NNPDF30NNLO_Wtaunu_MAXHTPTV70_140_BFilter.deriv.DAOD_HIGG4D2.e5340_s3126_r10201_p3749
mc16_13TeV.364190.Sherpa_221_NNPDF30NNLO_Wtaunu_MAXHTPTV140_280_CVetoBVeto.deriv.DAOD_HIGG4D2.e5340_s3126_r10201_p3749
mc16_13TeV.364191.Sherpa_221_NNPDF30NNLO_Wtaunu_MAXHTPTV140_280_CFilterBVeto.deriv.DAOD_HIGG4D2.e5340_s3126_r10201_p3749
mc16_13TeV.364192.Sherpa_221_NNPDF30NNLO_Wtaunu_MAXHTPTV140_280_BFilter.deriv.DAOD_HIGG4D2.e5340_s3126_r10201_p3749
mc16_13TeV.364193.Sherpa_221_NNPDF30NNLO_Wtaunu_MAXHTPTV280_500_CVetoBVeto.deriv.DAOD_HIGG4D2.e5340_s3126_r10201_p3749
mc16_13TeV.364194.Sherpa_221_NNPDF30NNLO_Wtaunu_MAXHTPTV280_500_CFilterBVeto.deriv.DAOD_HIGG4D2.e5340_s3126_r10201_p3749
mc16_13TeV.364195.Sherpa_221_NNPDF30NNLO_Wtaunu_MAXHTPTV280_500_BFilter.deriv.DAOD_HIGG4D2.e5340_s3126_r10201_p3749
mc16_13TeV.364196.Sherpa_221_NNPDF30NNLO_Wtaunu_MAXHTPTV500_1000.deriv.DAOD_HIGG4D2.e5340_s3126_r10201_p3749
mc16_13TeV.364197.Sherpa_221_NNPDF30NNLO_Wtaunu_MAXHTPTV1000_E_CMS.deriv.DAOD_HIGG4D2.e5340_s3126_r10201_p3749
mc16_13TeV.364253.Sherpa_222_NNPDF30NNLO_lllv.deriv.DAOD_HIGG4D2.e5916_s3126_r10201_p3749
mc16_13TeV.364250.Sherpa_222_NNPDF30NNLO_llll.deriv.DAOD_HIGG4D2.e5894_s3126_r10201_p3749
mc16_13TeV.363358.Sherpa_221_NNPDF30NNLO_WqqZll.deriv.DAOD_HIGG4D2.e5525_s3126_r10201_p3749
mc16_13TeV.363357.Sherpa_221_NNPDF30NNLO_WqqZvv.deriv.DAOD_HIGG4D2.e5525_s3126_r10201_p3749
mc16_13TeV.363355.Sherpa_221_NNPDF30NNLO_ZqqZvv.deriv.DAOD_HIGG4D2.e5525_s3126_r10201_p3749
mc16_13TeV.363489.Sherpa_221_NNPDF30NNLO_WlvZqq.deriv.DAOD_HIGG4D2.e5525_s3126_r10201_p3749
mc16_13TeV.363356.Sherpa_221_NNPDF30NNLO_ZqqZll.deriv.DAOD_HIGG4D2.e5525_s3126_r10201_p3749
mc16_13TeV.363360.Sherpa_221_NNPDF30NNLO_WplvWmqq.deriv.DAOD_HIGG4D2.e5983_s3126_r10201_p3749
mc16_13TeV.363359.Sherpa_221_NNPDF30NNLO_WpqqWmlv.deriv.DAOD_HIGG4D2.e5583_s3126_r10201_p3749
mc16_13TeV.410013.PowhegPythiaEvtGen_P2012_Wt_inclusive_top.deriv.DAOD_HIGG4D2.e3753_s3126_r10201_p3759
mc16_13TeV.410014.PowhegPythiaEvtGen_P2012_Wt_inclusive_antitop.deriv.DAOD_HIGG4D2.e3753_s3126_r10201_p3759
mc16_13TeV.410142.Sherpa_NNPDF30NNLO_ttll_mll5.deriv.DAOD_HIGG4D2.e4686_s3126_r10201_p3759
mc16_13TeV.410144.Sherpa_NNPDF30NNLO_ttW.deriv.DAOD_HIGG4D2.e4686_s3126_r10201_p3759
mc16_13TeV.410143.Sherpa_NNPDF30NNLO_ttZnnqq.deriv.DAOD_HIGG4D2.e4686_s3126_r10201_p3759
mc16_13TeV.303014.Sherpa_CT10_VV_evev_50M150.deriv.DAOD_HIGG4D2.e4188_s3126_r10201_p3759
mc16_13TeV.303015.Sherpa_CT10_VV_evev_150M500.deriv.DAOD_HIGG4D2.e4188_s3126_r10201_p3759
mc16_13TeV.303016.Sherpa_CT10_VV_evev_500M1000.deriv.DAOD_HIGG4D2.e4188_s3126_r10201_p3759
mc16_13TeV.303017.Sherpa_CT10_VV_evev_1000M2000.deriv.DAOD_HIGG4D2.e4188_s3126_r10201_p3759
mc16_13TeV.303018.Sherpa_CT10_VV_evev_2000M3000.deriv.DAOD_HIGG4D2.e4188_s3126_r10201_p3759
mc16_13TeV.303019.Sherpa_CT10_VV_evev_3000M4000.deriv.DAOD_HIGG4D2.e4188_s3126_r10201_p3759
mc16_13TeV.303020.Sherpa_CT10_VV_evev_4000M5000.deriv.DAOD_HIGG4D2.e4188_s3126_r10201_p3759
mc16_13TeV.303021.Sherpa_CT10_VV_evev_5000M.deriv.DAOD_HIGG4D2.e4188_s3126_r10201_p3759
mc16_13TeV.303046.Sherpa_CT10_VV_muvmuv_50M150.deriv.DAOD_HIGG4D2.e4188_s3126_r10201_p3759
mc16_13TeV.303047.Sherpa_CT10_VV_muvmuv_150M500.deriv.DAOD_HIGG4D2.e4188_s3126_r10201_p3759
mc16_13TeV.303048.Sherpa_CT10_VV_muvmuv_500M1000.deriv.DAOD_HIGG4D2.e4188_s3126_r10201_p3759
mc16_13TeV.303049.Sherpa_CT10_VV_muvmuv_1000M2000.deriv.DAOD_HIGG4D2.e4188_s3126_r10201_p3759
mc16_13TeV.303050.Sherpa_CT10_VV_muvmuv_2000M3000.deriv.DAOD_HIGG4D2.e4188_s3126_r10201_p3759
mc16_13TeV.303051.Sherpa_CT10_VV_muvmuv_3000M4000.deriv.DAOD_HIGG4D2.e4188_s3126_r10201_p3759
mc16_13TeV.303052.Sherpa_CT10_VV_muvmuv_4000M5000.deriv.DAOD_HIGG4D2.e4188_s3126_r10201_p3759
mc16_13TeV.303053.Sherpa_CT10_VV_muvmuv_5000M.deriv.DAOD_HIGG4D2.e4188_s3126_r10201_p3759
mc16_13TeV.303488.Sherpa_CT10_VV_evmuv_0M150.deriv.DAOD_HIGG4D2.e4318_s3126_r10201_p3759
mc16_13TeV.303489.Sherpa_CT10_VV_evmuv_150M500.deriv.DAOD_HIGG4D2.e4318_s3126_r10201_p3759
mc16_13TeV.303490.Sherpa_CT10_VV_evmuv_500M1000.deriv.DAOD_HIGG4D2.e4318_s3126_r10201_p3759
mc16_13TeV.303491.Sherpa_CT10_VV_evmuv_1000M2000.deriv.DAOD_HIGG4D2.e4318_s3126_r10201_p3759
mc16_13TeV.303492.Sherpa_CT10_VV_evmuv_2000M3000.deriv.DAOD_HIGG4D2.e4318_s3126_r10201_p3759
mc16_13TeV.303493.Sherpa_CT10_VV_evmuv_3000M4000.deriv.DAOD_HIGG4D2.e4318_s3126_r10201_p3759
mc16_13TeV.303494.Sherpa_CT10_VV_evmuv_4000M5000.deriv.DAOD_HIGG4D2.e4318_s3126_r10201_p3759
mc16_13TeV.303495.Sherpa_CT10_VV_evmuv_M5000.deriv.DAOD_HIGG4D2.e4318_s3126_r10201_p3759
mc16_13TeV.304933.Sherpa_CT10_VV_evtauv_0M150.deriv.DAOD_HIGG4D2.e4780_s3126_r10201_p3759
mc16_13TeV.304934.Sherpa_CT10_VV_evtauv_150M500.deriv.DAOD_HIGG4D2.e4780_s3126_r10201_p3759
mc16_13TeV.304935.Sherpa_CT10_VV_evtauv_500M1000.deriv.DAOD_HIGG4D2.e4780_s3126_r10201_p3759
mc16_13TeV.304936.Sherpa_CT10_VV_evtauv_1000M2000.deriv.DAOD_HIGG4D2.e4780_s3126_r10201_p3759
mc16_13TeV.304937.Sherpa_CT10_VV_evtauv_2000M3000.deriv.DAOD_HIGG4D2.e4780_s3126_r10201_p3759
mc16_13TeV.304938.Sherpa_CT10_VV_evtauv_3000M4000.deriv.DAOD_HIGG4D2.e4780_s3126_r10201_p3759
mc16_13TeV.304939.Sherpa_CT10_VV_evtauv_4000M5000.deriv.DAOD_HIGG4D2.e4780_s3126_r10201_p3759
mc16_13TeV.304940.Sherpa_CT10_VV_evtauv_M5000.deriv.DAOD_HIGG4D2.e4780_s3126_r10201_p3759
mc16_13TeV.304941.Sherpa_CT10_VV_muvtauv_0M150.deriv.DAOD_HIGG4D2.e4780_s3126_r10201_p3759
mc16_13TeV.304942.Sherpa_CT10_VV_muvtauv_150M500.deriv.DAOD_HIGG4D2.e4780_s3126_r10201_p3759
mc16_13TeV.304943.Sherpa_CT10_VV_muvtauv_500M1000.deriv.DAOD_HIGG4D2.e4780_s3126_r10201_p3759
mc16_13TeV.304945.Sherpa_CT10_VV_muvtauv_2000M3000.deriv.DAOD_HIGG4D2.e4780_s3126_r10201_p3759
mc16_13TeV.304946.Sherpa_CT10_VV_muvtauv_3000M4000.deriv.DAOD_HIGG4D2.e4780_s3126_r10201_p3759
mc16_13TeV.304947.Sherpa_CT10_VV_muvtauv_4000M5000.deriv.DAOD_HIGG4D2.e4780_s3126_r10201_p3759
mc16_13TeV.304948.Sherpa_CT10_VV_muvtauv_M5000.deriv.DAOD_HIGG4D2.e4780_s3126_r10201_p3759
mc16_13TeV.304949.Sherpa_CT10_VV_tauvtauv_0M150.deriv.DAOD_HIGG4D2.e4780_s3126_r10201_p3759
mc16_13TeV.304950.Sherpa_CT10_VV_tauvtauv_150M500.deriv.DAOD_HIGG4D2.e4780_s3126_r10201_p3759
mc16_13TeV.304951.Sherpa_CT10_VV_tauvtauv_500M1000.deriv.DAOD_HIGG4D2.e4780_s3126_r10201_p3759
mc16_13TeV.304952.Sherpa_CT10_VV_tauvtauv_1000M2000.deriv.DAOD_HIGG4D2.e4780_s3126_r10201_p3759
mc16_13TeV.304953.Sherpa_CT10_VV_tauvtauv_2000M3000.deriv.DAOD_HIGG4D2.e4780_s3126_r10201_p3759
mc16_13TeV.304955.Sherpa_CT10_VV_tauvtauv_4000M5000.deriv.DAOD_HIGG4D2.e4780_s3126_r10201_p3759
mc16_13TeV.304956.Sherpa_CT10_VV_tauvtauv_M5000.deriv.DAOD_HIGG4D2.e4780_s3126_r10201_p3759
